Introduction to R
…
Display the first 4 columns of the dataset.

statcast_data[, 1:4]

# A tibble: 999 × 4
   pitch_type game_date release_speed release_pos_x
   <chr>      <chr>             <dbl>         <dbl>
 1 FF         4/2/2024           95           -2.01
 2 CH         4/2/2024           88.5         -2.09
 3 SI         4/2/2024           95           -2.02
 4 KC         4/2/2024           80.8         -3.13
 5 FF         4/2/2024           95.4         -1.95
 6 SI         4/2/2024           90.7         -1.26
 7 SI         4/2/2024           91.8          1.75
 8 SI         4/2/2024           94           -1.9 
 9 SI         4/2/2024           89.9         -1.14
10 FF         4/2/2024           93.4         -3.17
# ℹ 989 more rows
…
Another way to display values

statcast_data[, c("player_name")]

# A tibble: 999 × 1
   player_name    
   <chr>          
 1 Rocchio, Brayan
 2 Rocchio, Brayan
 3 Rocchio, Brayan
 4 Rizzo, Anthony 
 5 Hedges, Austin 
 6 Ohtani, Shohei 
 7 Casas, Triston 
 8 Hedges, Austin 
 9 Ohtani, Shohei 
10 Rizzo, Anthony 
# ℹ 989 more rows
…
Create a new variable

Create a new variable “release_pos” by adding up values of variables “release_pos_x” and “release_pos_z”.

statcast_data$release_pos <- statcast_data$release_pos_x + statcast_data$release_pos_z

Display only “release_pos_x”, “release_pos_z”, and “release_pos” of the updated dataset.

statcast_data[, c("release_pos_x", "release_pos_z", "release_pos")]

# A tibble: 999 × 3
   release_pos_x release_pos_z release_pos
           <dbl>         <dbl>       <dbl>
 1         -2.01          5.22        3.21
 2         -2.09          4.95        2.86
 3         -2.02          5.12        3.1 
 4         -3.13          5.61        2.48
 5         -1.95          5.12        3.17
 6         -1.26          5.13        3.87
 7          1.75          4.89        6.64
 8         -1.9           4.99        3.09
 9         -1.14          5.01        3.87
10         -3.17          5.63        2.46
# ℹ 989 more rows
…
filter out unnecessary obvservations

mutate new variables, or change existing ones

arrange in an easy to digest format

Data Manipulation using dplyr

library(dplyr)

For a given analysis, you may only need a subset of the columns in a data table; extracting only what you need can helpfully de-clutter, especially when you have large datasets. Select columns using select.

select(statcast_data, pitch_type, game_date, player_name, release_speed)

# A tibble: 999 × 4
   pitch_type game_date player_name     release_speed
   <chr>      <chr>     <chr>                   <dbl>
 1 FF         4/2/2024  Rocchio, Brayan          95  
 2 CH         4/2/2024  Rocchio, Brayan          88.5
 3 SI         4/2/2024  Rocchio, Brayan          95  
 4 KC         4/2/2024  Rizzo, Anthony           80.8
 5 FF         4/2/2024  Hedges, Austin           95.4
 6 SI         4/2/2024  Ohtani, Shohei           90.7
 7 SI         4/2/2024  Casas, Triston           91.8
 8 SI         4/2/2024  Hedges, Austin           94  
 9 SI         4/2/2024  Ohtani, Shohei           89.9
10 FF         4/2/2024  Rizzo, Anthony           93.4
# ℹ 989 more rows

Select (continued)

You can specify the specify a range of columns to keep:

select(statcast_data, pitch_type:player_name)

# A tibble: 999 × 6
   pitch_type game_date release_speed release_pos_x release_pos_z player_name   
   <chr>      <chr>             <dbl>         <dbl>         <dbl> <chr>         
 1 FF         4/2/2024           95           -2.01          5.22 Rocchio, Bray…
 2 CH         4/2/2024           88.5         -2.09          4.95 Rocchio, Bray…
 3 SI         4/2/2024           95           -2.02          5.12 Rocchio, Bray…
 4 KC         4/2/2024           80.8         -3.13          5.61 Rizzo, Anthony
 5 FF         4/2/2024           95.4         -1.95          5.12 Hedges, Austin
 6 SI         4/2/2024           90.7         -1.26          5.13 Ohtani, Shohei
 7 SI         4/2/2024           91.8          1.75          4.89 Casas, Triston
 8 SI         4/2/2024           94           -1.9           4.99 Hedges, Austin
 9 SI         4/2/2024           89.9         -1.14          5.01 Ohtani, Shohei
10 FF         4/2/2024           93.4         -3.17          5.63 Rizzo, Anthony
# ℹ 989 more rows

You can also specify columns you’d like to remove:

select(statcast_data, -pitch_type)

# A tibble: 999 × 113
   game_date release_speed release_pos_x release_pos_z player_name     batter
   <chr>             <dbl>         <dbl>         <dbl> <chr>            <dbl>
 1 4/2/2024           95           -2.01          5.22 Rocchio, Brayan 677587
 2 4/2/2024           88.5         -2.09          4.95 Rocchio, Brayan 677587
 3 4/2/2024           95           -2.02          5.12 Rocchio, Brayan 677587
 4 4/2/2024           80.8         -3.13          5.61 Rizzo, Anthony  519203
 5 4/2/2024           95.4         -1.95          5.12 Hedges, Austin  595978
 6 4/2/2024           90.7         -1.26          5.13 Ohtani, Shohei  660271
 7 4/2/2024           91.8          1.75          4.89 Casas, Triston  671213
 8 4/2/2024           94           -1.9           4.99 Hedges, Austin  595978
 9 4/2/2024           89.9         -1.14          5.01 Ohtani, Shohei  660271
10 4/2/2024           93.4         -3.17          5.63 Rizzo, Anthony  519203
# ℹ 989 more rows
# ℹ 107 more variables: pitcher <dbl>, events <chr>, description <chr>,
#   spin_dir <lgl>, spin_rate_deprecated <lgl>, break_angle_deprecated <lgl>,
#   break_length_deprecated <lgl>, zone <dbl>, des <chr>, game_type <chr>,
#   stand <chr>, p_throws <chr>, home_team <chr>, away_team <chr>, type <chr>,
#   hit_location <dbl>, bb_type <chr>, balls <dbl>, strikes <dbl>,
#   game_year <dbl>, pfx_x <dbl>, pfx_z <dbl>, plate_x <dbl>, plate_z <dbl>, …

Select (continued)

You can rename variables as part of this process:

select(statcast_data, GAME_DATE = game_date , PlAyEr_NaMe = player_name)

# A tibble: 999 × 2
   GAME_DATE PlAyEr_NaMe    
   <chr>     <chr>          
 1 4/2/2024  Rocchio, Brayan
 2 4/2/2024  Rocchio, Brayan
 3 4/2/2024  Rocchio, Brayan
 4 4/2/2024  Rizzo, Anthony 
 5 4/2/2024  Hedges, Austin 
 6 4/2/2024  Ohtani, Shohei 
 7 4/2/2024  Casas, Triston 
 8 4/2/2024  Hedges, Austin 
 9 4/2/2024  Ohtani, Shohei 
10 4/2/2024  Rizzo, Anthony 
# ℹ 989 more rows

Rename

If all you want to do is rename something, you can use rename instead of select. This will rename the variables you care about, and keep everything else:

rename(statcast_data, GAME_DATE = game_date , release_SPEED = release_speed, PlAyEr_NaMe = player_name)

# A tibble: 999 × 114
   pitch_type GAME_DATE release_SPEED release_pos_x release_pos_z PlAyEr_NaMe   
   <chr>      <chr>             <dbl>         <dbl>         <dbl> <chr>         
 1 FF         4/2/2024           95           -2.01          5.22 Rocchio, Bray…
 2 CH         4/2/2024           88.5         -2.09          4.95 Rocchio, Bray…
 3 SI         4/2/2024           95           -2.02          5.12 Rocchio, Bray…
 4 KC         4/2/2024           80.8         -3.13          5.61 Rizzo, Anthony
 5 FF         4/2/2024           95.4         -1.95          5.12 Hedges, Austin
 6 SI         4/2/2024           90.7         -1.26          5.13 Ohtani, Shohei
 7 SI         4/2/2024           91.8          1.75          4.89 Casas, Triston
 8 SI         4/2/2024           94           -1.9           4.99 Hedges, Austin
 9 SI         4/2/2024           89.9         -1.14          5.01 Ohtani, Shohei
10 FF         4/2/2024           93.4         -3.17          5.63 Rizzo, Anthony
# ℹ 989 more rows
# ℹ 108 more variables: batter <dbl>, pitcher <dbl>, events <chr>,
#   description <chr>, spin_dir <lgl>, spin_rate_deprecated <lgl>,
#   break_angle_deprecated <lgl>, break_length_deprecated <lgl>, zone <dbl>,
#   des <chr>, game_type <chr>, stand <chr>, p_throws <chr>, home_team <chr>,
#   away_team <chr>, type <chr>, hit_location <dbl>, bb_type <chr>,
#   balls <dbl>, strikes <dbl>, game_year <dbl>, pfx_x <dbl>, pfx_z <dbl>, …

Helper functions for select

There are some handy helper functions for select; read about all of them using ?select_helpers. I use starts_with(), ends_with(), and contains() often, especially when there variables are named with suffixes or other standard patterns:

select(statcast_data, starts_with("re"))

# A tibble: 999 × 7
   release_speed release_pos_x release_pos_z release_spin_rate release_extension
           <dbl>         <dbl>         <dbl>             <dbl>             <dbl>
 1          95           -2.01          5.22              2061               5.4
 2          88.5         -2.09          4.95              1677               5.4
 3          95           -2.02          5.12              1832               5.5
 4          80.8         -3.13          5.61              2479               6.7
 5          95.4         -1.95          5.12              2153               5.5
 6          90.7         -1.26          5.13              1865               6.8
 7          91.8          1.75          4.89              2104               6.2
 8          94           -1.9           4.99              1917               5.6
 9          89.9         -1.14          5.01              1916               7.1
10          93.4         -3.17          5.63              2362               7  
# ℹ 989 more rows
# ℹ 2 more variables: release_pos_y <dbl>, release_pos <dbl>

select(statcast_data, ends_with("er"))

# A tibble: 999 × 5
   batter pitcher at_bat_number pitch_number n_thruorder_pitcher
    <dbl>   <dbl>         <dbl>        <dbl>               <dbl>
 1 677587  622491            46            3                   3
 2 677587  622491            46            2                   3
 3 677587  622491            46            1                   3
 4 519203  668678            45            6                   3
 5 595978  622491            45            4                   3
 6 660271  657277            37            4                   3
 7 671213  622072            46            8                   3
 8 595978  622491            45            3                   3
 9 660271  657277            37            3                   3
10 519203  668678            45            5                   3
# ℹ 989 more rows

Filter

Some data tables will include rows you don’t need for your current analysis. Although you could remove specific row numbers using base R, you shouldn’t – this might break if the raw data are updated, and the thought process isn’t transparent. Instead, you should filter rows based on logical expressions using the filter function. Like select, the first argument to filter is the dataframe you’re filtering; all subsequent arguments are logical expressions.

You will often filter using comparison operators (>, >=, <, <=, ==, and !=). You may also use %in% to detect if values appear in a set, and is.na() to find missing values. The results of comparisons are logical. The statement is TRUE or FALSE depending on the values you compare – and can be combined with other comparisons using the logical operators & and |, or negated using !.

filter(statcast_data, pitch_type == 'FF')

# A tibble: 237 × 114
   pitch_type game_date release_speed release_pos_x release_pos_z player_name   
   <chr>      <chr>             <dbl>         <dbl>         <dbl> <chr>         
 1 FF         4/2/2024           95           -2.01          5.22 Rocchio, Bray…
 2 FF         4/2/2024           95.4         -1.95          5.12 Hedges, Austin
 3 FF         4/2/2024           93.4         -3.17          5.63 Rizzo, Anthony
 4 FF         4/2/2024           94.4         -1.94          5.16 Hedges, Austin
 5 FF         4/2/2024           96.4          2.14          5.97 Hicks, Aaron  
 6 FF         4/2/2024           96.1          2.15          6.23 Duvall, Adam  
 7 FF         4/2/2024           94.3          2.22          6.26 Duvall, Adam  
 8 FF         4/2/2024           95.5          2.2           6.22 Duvall, Adam  
 9 FF         4/2/2024           92.5         -2.93          5.87 Judge, Aaron  
10 FF         4/2/2024           95.2         -2.05          5.15 Naylor, Bo    
# ℹ 227 more rows
# ℹ 108 more variables: batter <dbl>, pitcher <dbl>, events <chr>,
#   description <chr>, spin_dir <lgl>, spin_rate_deprecated <lgl>,
#   break_angle_deprecated <lgl>, break_length_deprecated <lgl>, zone <dbl>,
#   des <chr>, game_type <chr>, stand <chr>, p_throws <chr>, home_team <chr>,
#   away_team <chr>, type <chr>, hit_location <dbl>, bb_type <chr>,
#   balls <dbl>, strikes <dbl>, game_year <dbl>, pfx_x <dbl>, pfx_z <dbl>, …

filter(statcast_data, pitch_type == 'FF' & release_speed >= 90)

# A tibble: 211 × 114
   pitch_type game_date release_speed release_pos_x release_pos_z player_name   
   <chr>      <chr>             <dbl>         <dbl>         <dbl> <chr>         
 1 FF         4/2/2024           95           -2.01          5.22 Rocchio, Bray…
 2 FF         4/2/2024           95.4         -1.95          5.12 Hedges, Austin
 3 FF         4/2/2024           93.4         -3.17          5.63 Rizzo, Anthony
 4 FF         4/2/2024           94.4         -1.94          5.16 Hedges, Austin
 5 FF         4/2/2024           96.4          2.14          5.97 Hicks, Aaron  
 6 FF         4/2/2024           96.1          2.15          6.23 Duvall, Adam  
 7 FF         4/2/2024           94.3          2.22          6.26 Duvall, Adam  
 8 FF         4/2/2024           95.5          2.2           6.22 Duvall, Adam  
 9 FF         4/2/2024           92.5         -2.93          5.87 Judge, Aaron  
10 FF         4/2/2024           95.2         -2.05          5.15 Naylor, Bo    
# ℹ 201 more rows
# ℹ 108 more variables: batter <dbl>, pitcher <dbl>, events <chr>,
#   description <chr>, spin_dir <lgl>, spin_rate_deprecated <lgl>,
#   break_angle_deprecated <lgl>, break_length_deprecated <lgl>, zone <dbl>,
#   des <chr>, game_type <chr>, stand <chr>, p_throws <chr>, home_team <chr>,
#   away_team <chr>, type <chr>, hit_location <dbl>, bb_type <chr>,
#   balls <dbl>, strikes <dbl>, game_year <dbl>, pfx_x <dbl>, pfx_z <dbl>, …

Omit missing observations

To remove any row with a missing value:

# drop_na(statcast_data) 

To remove rows for which a specific column is missing:

drop_na(statcast_data, events) # will remove rows for which events is missing.

# A tibble: 283 × 114
   pitch_type game_date release_speed release_pos_x release_pos_z player_name   
   <chr>      <chr>             <dbl>         <dbl>         <dbl> <chr>         
 1 FF         4/2/2024           95           -2.01          5.22 Rocchio, Bray…
 2 KC         4/2/2024           80.8         -3.13          5.61 Rizzo, Anthony
 3 FF         4/2/2024           95.4         -1.95          5.12 Hedges, Austin
 4 SI         4/2/2024           90.7         -1.26          5.13 Ohtani, Shohei
 5 SI         4/2/2024           91.8          1.75          4.89 Casas, Triston
 6 FC         4/2/2024           91.4          2.3           6.31 Harris II, Mi…
 7 SI         4/2/2024           96.3          2.23          5.96 Hicks, Aaron  
 8 FF         4/2/2024           96.1          2.15          6.23 Duvall, Adam  
 9 ST         4/2/2024           83.9         -1.43          4.95 Betts, Mookie 
10 SI         4/2/2024           94.2         -1.91          4.98 Naylor, Bo    
# ℹ 273 more rows
# ℹ 108 more variables: batter <dbl>, pitcher <dbl>, events <chr>,
#   description <chr>, spin_dir <lgl>, spin_rate_deprecated <lgl>,
#   break_angle_deprecated <lgl>, break_length_deprecated <lgl>, zone <dbl>,
#   des <chr>, game_type <chr>, stand <chr>, p_throws <chr>, home_team <chr>,
#   away_team <chr>, type <chr>, hit_location <dbl>, bb_type <chr>,
#   balls <dbl>, strikes <dbl>, game_year <dbl>, pfx_x <dbl>, pfx_z <dbl>, …
…
The result of one function gets passed as the first argument to the next one by default, although you can be more specific

Piping example

statcast_data = 
  read_csv("./statcast_data.csv") %>%
  select(-description) %>%
  mutate(
    pitch_type = str_to_lower(pitch_type)) %>% 
  drop_na(events)

statcast_data

# A tibble: 283 × 112
   pitch_type game_date release_speed release_pos_x release_pos_z player_name   
   <chr>      <chr>             <dbl>         <dbl>         <dbl> <chr>         
 1 ff         4/2/2024           95           -2.01          5.22 Rocchio, Bray…
 2 kc         4/2/2024           80.8         -3.13          5.61 Rizzo, Anthony
 3 ff         4/2/2024           95.4         -1.95          5.12 Hedges, Austin
 4 si         4/2/2024           90.7         -1.26          5.13 Ohtani, Shohei
 5 si         4/2/2024           91.8          1.75          4.89 Casas, Triston
 6 fc         4/2/2024           91.4          2.3           6.31 Harris II, Mi…
 7 si         4/2/2024           96.3          2.23          5.96 Hicks, Aaron  
 8 ff         4/2/2024           96.1          2.15          6.23 Duvall, Adam  
 9 st         4/2/2024           83.9         -1.43          4.95 Betts, Mookie 
10 si         4/2/2024           94.2         -1.91          4.98 Naylor, Bo    
# ℹ 273 more rows
# ℹ 106 more variables: batter <dbl>, pitcher <dbl>, events <chr>,
#   spin_dir <lgl>, spin_rate_deprecated <lgl>, break_angle_deprecated <lgl>,
#   break_length_deprecated <lgl>, zone <dbl>, des <chr>, game_type <chr>,
#   stand <chr>, p_throws <chr>, home_team <chr>, away_team <chr>, type <chr>,
#   hit_location <dbl>, bb_type <chr>, balls <dbl>, strikes <dbl>,
#   game_year <dbl>, pfx_x <dbl>, pfx_z <dbl>, plate_x <dbl>, plate_z <dbl>, …
